<?xml version="1.0" encoding="utf-8"?>
<!-- Generator: Adobe Illustrator 19.0.0, SVG Export Plug-In . SVG Version: 6.00 Build 0)  -->
<svg version="1.1" id="Layer_1" xmlns="http://www.w3.org/2000/svg" xmlns:xlink="http://www.w3.org/1999/xlink" x="0px" y="0px"
	 width="136.3px" height="118.7px" viewBox="0 0 136.3 118.7" style="enable-background:new 0 0 136.3 118.7;" xml:space="preserve"
	>
<style type="text/css">
	.st0{fill:#FFFFFF;}
</style>
<path id="XMLID_30_" class="st0" d="M40.7,76.9v4.9v21.6v4.9c0,1.4-1.1,2.5-2.5,2.5H26.5c-1.4,0-2.5-1.1-2.5-2.5v-4.9V81.8v-4.9
	c0-1.4,1.1-2.5,2.5-2.5h11.8C39.6,74.4,40.7,75.5,40.7,76.9z M62,60.2H50.3c-1.4,0-2.5,1.1-2.5,2.5v19.1v7.5v19.1
	c0,1.4,1.1,2.5,2.5,2.5H62c1.4,0,2.5-1.1,2.5-2.5V89.3v-7.5v-19C64.7,61.4,63.5,60.2,62,60.2z M88.5,67.8v-21h8.1
	c1.6,0,2.5-1.7,1.6-3L81.6,17.1c-0.8-1.3-2.5-1.3-3.3,0L61.7,43.9c-0.8,1.3,0.2,3,1.6,3h8.1v61.6c0,1.4,1.1,2.5,2.5,2.5h11.8
	c1.4,0,2.5-1.1,2.5-2.5c-4.7-5.5-7.7-12.5-7.7-20.4C81,80.4,83.8,73.2,88.5,67.8z M136.3,88.1c0,13.6-11,24.6-24.6,24.6
	s-24.6-11-24.6-24.6s11-24.6,24.6-24.6C125.3,63.6,136.3,74.6,136.3,88.1z M116.6,86.5c-1.3-0.8-2.7-1.3-4.1-1.9
	c-0.8-0.3-1.6-0.8-2.2-1.3c-1.4-1.1-1.1-2.8,0.5-3.4c0.5-0.2,0.9-0.3,1.4-0.3c1.9-0.2,3.6,0.2,5.2,1.1c0.8,0.5,1.1,0.3,1.4-0.6
	c0.3-0.9,0.5-1.9,0.8-2.7c0.2-0.6,0-0.9-0.6-1.3c-1.1-0.5-2.2-0.8-3.3-0.9c-1.4-0.2-1.4-0.3-1.6-1.7c0-2,0-2-2.2-2
	c-0.3,0-0.6,0-0.9,0c-0.9,0-1.1,0.2-1.3,1.3c0,0.5,0,0.9,0,1.4c0,1.3,0,1.3-1.3,1.7c-3.1,1.1-5,3.1-5.2,6.6c-0.2,3,1.4,5,3.8,6.4
	c1.6,0.9,3.1,1.4,4.7,2.2c0.6,0.3,1.3,0.6,1.7,0.9c1.6,1.3,1.3,3.3-0.6,4.1c-0.9,0.5-2,0.5-3,0.5c-1.6-0.2-3.1-0.6-4.5-1.4
	c-0.8-0.5-1.1-0.3-1.4,0.6c-0.3,0.8-0.5,1.6-0.6,2.4c-0.3,1.1-0.2,1.4,0.8,1.9c1.3,0.6,2.7,0.9,4.2,1.3c1.1,0.2,1.1,0.2,1.1,1.4
	c0,0.5,0,1.1,0,1.6c0,0.6,0.3,1.1,0.9,1.1c0.8,0,1.6,0,2.4,0c0.6,0,0.9-0.3,0.9-0.9c0-0.8,0-1.4,0-2.2c0-0.8,0.3-1.1,0.9-1.3
	c1.6-0.5,3-1.3,4.1-2.7C121.9,94.2,120.6,88.8,116.6,86.5z M14.3,91.5H2.5C1.1,91.5,0,92.6,0,94v0.5v4.4v4.5v1.7v3.3
	c0,1.4,1.1,2.5,2.5,2.5h11.8c1.4,0,2.5-1.1,2.5-2.5v-3.3v-1.7v-4.5v-3.8V94C16.9,92.6,15.7,91.5,14.3,91.5z"/>
</svg>
