<?xml version="1.0" encoding="utf-8"?>
<!-- Generator: Adobe Illustrator 19.0.0, SVG Export Plug-In . SVG Version: 6.00 Build 0)  -->
<svg version="1.1" id="Layer_1" xmlns="http://www.w3.org/2000/svg" xmlns:xlink="http://www.w3.org/1999/xlink" x="0px" y="0px"
	 width="51.8px" height="63.4px" viewBox="0 0 51.8 63.4" style="enable-background:new 0 0 51.8 63.4;" xml:space="preserve">
<style type="text/css">
	.st0{fill:#FFFFFF;}
</style>
<g>
	<polygon class="st0" points="16.6,24.5 16.6,15.4 43.5,15.4 43.5,11.2 47.6,15.6 51.8,19.9 47.6,24.3 43.5,28.6 43.5,24.5 	"/>
	<polygon class="st0" points="51.8,33.3 51.8,42.4 24.9,42.4 24.9,46.6 20.7,42.2 16.6,37.9 20.7,33.5 24.9,29.1 24.9,33.3 	"/>
	<rect x="32.2" y="27" class="st0" width="3.7" height="3.8"/>
	<path class="st0" d="M32.2,44.9v7.1H3.7V7.3h28.5v5.6h3.7V6.7c0-3.7-3-6.7-6.7-6.7H6.7C3,0,0,3,0,6.7v50c0,3.7,3,6.7,6.7,6.7h22.5
		c3.7,0,6.7-3,6.7-6.7V44.9L32.2,44.9L32.2,44.9z M14.6,2.1h6.7c0.7,0,1.3,0.7,1.3,1.7c0,0.9-0.6,1.7-1.3,1.7h-6.7
		c-0.7,0-1.3-0.7-1.3-1.7C13.3,2.9,13.8,2.1,14.6,2.1z M17.9,61c-1.9,0-3.5-1.5-3.5-3.5c0-1.9,1.5-3.5,3.5-3.5
		c1.9,0,3.5,1.6,3.5,3.5C21.4,59.4,19.8,61,17.9,61z"/>
</g>
</svg>
