<?xml version="1.0" encoding="utf-8"?>
<!-- Generator: Adobe Illustrator 19.0.0, SVG Export Plug-In . SVG Version: 6.00 Build 0)  -->
<svg version="1.1" id="Layer_1" xmlns="http://www.w3.org/2000/svg" xmlns:xlink="http://www.w3.org/1999/xlink" x="0px" y="0px"
	 width="150.5px" height="150.5px" viewBox="0 0 150.5 150.5" style="enable-background:new 0 0 150.5 150.5;" xml:space="preserve"
	>
<style type="text/css">
	.st0{fill:#FFFFFF;}
</style>
<g>
	<g>
		<path class="st0" d="M61.8,35.1c-1.1,1.1-1.1,3,0.1,4.1l11.8,11.3c0,0,0,0,0,0c0.3,0.2,0.5,0.4,0.9,0.6c0,0,0,0,0.1,0
			c0.3,0.1,0.6,0.2,1,0.2l0,0l0,0l0,0c0.4,0,0.7-0.1,1-0.2c0,0,0,0,0.1,0c0.3-0.1,0.6-0.3,0.9-0.6c0,0,0,0,0,0l11.8-11.3
			c1.1-1.1,1.2-2.9,0.1-4.1c-1.1-1.1-2.9-1.2-4.1-0.1l-6.9,6.6V2.9c0-1.6-1.3-2.9-2.9-2.9c-1.6,0-2.9,1.3-2.9,2.9v38.7L65.9,35
			C64.8,33.9,63,33.9,61.8,35.1z"/>
		<path class="st0" d="M45.5,49L36,49.2c-1.6,0-2.9,1.4-2.8,2.9c0,1.6,1.3,2.8,2.9,2.8c0,0,0,0,0.1,0l16.3-0.3c0.3,0,0.7-0.1,1-0.2
			c0,0,0,0,0.1,0c0.7-0.3,1.3-0.9,1.6-1.6c0,0,0,0,0-0.1c0.1-0.3,0.2-0.6,0.2-1l0.3-16.3c0-1.6-1.2-2.9-2.8-2.9
			c-1.5,0-2.9,1.2-2.9,2.8l-0.2,9.5L25,20.3c-1.1-1.1-3-1.1-4.1,0c-1.1,1.1-1.1,3,0,4.1L45.5,49z"/>
		<path class="st0" d="M35,84.6c-1.1,1.1-1.1,3,0.1,4.1c0.6,0.5,1.3,0.8,2,0.8c0.8,0,1.5-0.3,2.1-0.9l11.3-11.8c0,0,0,0,0,0
			c0.2-0.3,0.4-0.5,0.6-0.9c0,0,0-0.1,0-0.1c0.1-0.3,0.2-0.6,0.2-1c0,0,0,0,0,0l0,0c0-0.4-0.1-0.7-0.2-1c0,0,0,0,0-0.1
			c-0.1-0.3-0.3-0.6-0.6-0.9c0,0,0,0,0,0L39.2,61.1c-1.1-1.1-2.9-1.2-4.1-0.1c-1.1,1.1-1.2,2.9-0.1,4.1l6.6,6.9H2.9
			C1.3,72,0,73.3,0,74.9c0,1.6,1.3,2.9,2.9,2.9h38.7L35,84.6z"/>
		<path class="st0" d="M49.2,114.6c0,1.6,1.3,2.8,2.9,2.8c0,0,0,0,0.1,0c1.6,0,2.9-1.4,2.8-2.9l-0.3-16.3c0-0.3-0.1-0.7-0.2-1
			c0,0,0,0,0-0.1c-0.3-0.7-0.9-1.3-1.6-1.6c0,0,0,0-0.1,0c-0.3-0.1-0.6-0.2-1-0.2L35.5,95c-1.5,0-2.9,1.2-2.9,2.8
			c0,1.6,1.2,2.9,2.8,2.9l9.5,0.2l-24.6,24.5c-1.1,1.1-1.1,3,0,4.1c0.6,0.6,1.3,0.8,2,0.8s1.5-0.3,2-0.8L49,105.1L49.2,114.6z"/>
		<path class="st0" d="M88.7,115.4c1.1-1.1,1.1-3-0.1-4.1l-11.8-11.3c0,0,0,0,0,0c-0.3-0.2-0.5-0.4-0.9-0.6c0,0,0,0-0.1,0
			c-0.3-0.1-0.7-0.2-1-0.2c-0.4,0-0.7,0.1-1,0.2c0,0,0,0-0.1,0c-0.3,0.1-0.6,0.3-0.9,0.6c0,0,0,0,0,0l-11.8,11.3
			c-1.1,1.1-1.2,2.9-0.1,4.1c0.6,0.6,1.3,0.9,2.1,0.9c0.7,0,1.4-0.3,2-0.8l6.9-6.6v38.7c0,1.6,1.3,2.9,2.9,2.9
			c1.6,0,2.9-1.3,2.9-2.9v-38.7l6.9,6.6C85.8,116.6,87.6,116.6,88.7,115.4z"/>
		<path class="st0" d="M105.1,101.6l9.5-0.2c1.6,0,2.9-1.4,2.8-2.9c0-1.6-1.4-2.9-2.9-2.8l-16.3,0.3c-0.3,0-0.7,0.1-1,0.2
			c0,0,0,0-0.1,0c-0.7,0.3-1.3,0.9-1.6,1.6c0,0,0,0,0,0.1c-0.1,0.3-0.2,0.6-0.2,1L95,115.1c0,1.6,1.2,2.9,2.8,2.9c0,0,0,0,0.1,0
			c1.6,0,2.8-1.3,2.9-2.8l0.2-9.5l24.5,24.6c0.6,0.6,1.3,0.8,2,0.8c0.7,0,1.5-0.3,2-0.8c1.1-1.1,1.1-3,0-4.1L105.1,101.6z"/>
		<path class="st0" d="M147.7,72.8h-38.7l6.6-6.9c1.1-1.1,1.1-3-0.1-4.1c-1.1-1.1-3-1.1-4.1,0.1l-11.3,11.8c0,0,0,0,0,0
			c-0.2,0.3-0.4,0.5-0.6,0.9c0,0,0,0.1,0,0.1c-0.1,0.3-0.2,0.6-0.2,1c0,0,0,0,0,0l0,0c0,0.4,0.1,0.7,0.2,1c0,0,0,0,0,0.1
			c0.1,0.3,0.3,0.6,0.6,0.9c0,0,0,0,0,0l11.3,11.8c0.6,0.6,1.3,0.9,2.1,0.9c0.7,0,1.4-0.3,2-0.8c1.1-1.1,1.2-2.9,0.1-4.1l-6.6-6.9
			h38.7c1.6,0,2.9-1.3,2.9-2.9C150.5,74.1,149.2,72.8,147.7,72.8z"/>
		<path class="st0" d="M101.4,36c0-1.6-1.4-2.9-2.9-2.8c-1.6,0-2.9,1.4-2.8,2.9l0.3,16.3c0,0.3,0.1,0.7,0.2,1c0,0,0,0,0,0.1
			c0.3,0.7,0.9,1.3,1.6,1.6c0,0,0,0,0.1,0c0.3,0.1,0.6,0.2,1,0.2l16.3,0.3c0,0,0,0,0.1,0c1.6,0,2.8-1.3,2.9-2.8
			c0-1.6-1.2-2.9-2.8-2.9l-9.5-0.2L130.2,25c1.1-1.1,1.1-3,0-4.1c-1.1-1.1-3-1.1-4.1,0l-24.6,24.6L101.4,36z"/>
		<path class="st0" d="M111.2,24.5c-7.5-5.3-15.8-8.8-24.8-10.4l-1,5.7c8.1,1.5,15.7,4.7,22.5,9.4L111.2,24.5z"/>
		<path class="st0" d="M65.8,19.7l-1-5.7c-9,1.5-17.4,5-25,10.2l3.3,4.7C50,24.2,57.6,21,65.8,19.7z"/>
		<path class="st0" d="M85.4,130.8l1,5.7c9-1.6,17.3-5.1,24.8-10.4l-3.3-4.7C101.1,126.1,93.5,129.3,85.4,130.8z"/>
		<path class="st0" d="M39.8,126.4c7.5,5.2,15.9,8.6,25,10.2l1-5.7c-8.2-1.4-15.8-4.5-22.7-9.2L39.8,126.4z"/>
		<path class="st0" d="M29.2,107.8c-4.8-6.8-8-14.5-9.5-22.6l-5.7,1c1.6,9,5.1,17.4,10.4,25L29.2,107.8z"/>
		<path class="st0" d="M29.2,42.8l-4.7-3.3c-5.3,7.5-8.8,15.9-10.4,25l5.7,1C21.2,57.2,24.4,49.6,29.2,42.8z"/>
		<path class="st0" d="M121.6,107.5l4.7,3.3c5.2-7.4,8.6-15.8,10.2-24.8l-5.7-1C129.4,93.2,126.3,100.7,121.6,107.5z"/>
		<path class="st0" d="M121.6,43.1c4.7,6.8,7.8,14.3,9.3,22.5l5.7-1c-1.6-8.9-5-17.3-10.2-24.8L121.6,43.1z"/>
		<circle class="st0" cx="75.3" cy="75.3" r="11.5"/>
	</g>
</g>
</svg>
