<?xml version="1.0" encoding="utf-8"?>
<!-- Generator: Adobe Illustrator 19.1.0, SVG Export Plug-In . SVG Version: 6.00 Build 0)  -->
<svg version="1.1" id="Layer_1" xmlns="http://www.w3.org/2000/svg" xmlns:xlink="http://www.w3.org/1999/xlink" x="0px" y="0px"
	 width="97.1px" height="119.6px" viewBox="0 0 97.1 119.6" style="enable-background:new 0 0 97.1 119.6;" xml:space="preserve">
<style type="text/css">
	.st0{fill:#FFFFFF;}
	.st1{clip-path:url(#SVGID_2_);fill:#FFFFFF;}
</style>
<g>
	<g>
		<g>
			<path id="a_2_" class="st0" d="M68.5,81.7c-0.7,1.1-1.5,2-2.1,3.1c11.3,2.3,18.8,6.8,18.8,12c0,7.4-16.4,13.6-36.6,13.6
				c-20.4,0-36.7-6-36.7-13.6c0-5.2,7.6-9.6,18.9-12c-0.7-0.9-1.5-2-2.1-3.1C11.7,84.9,0,91.8,0,99.8c0,10.9,21.7,19.8,48.6,19.8
				s48.6-8.9,48.6-19.8C97.1,91.8,85.4,84.9,68.5,81.7z M36.7,91.1c-0.5-0.7-0.9-1.3-1.5-2C27,90.7,21.4,93.7,21.4,97
				c0,4.9,12.1,8.9,27.1,8.9s27.1-4,27.1-8.9c0-3.3-5.6-6.3-13.8-7.8c-0.5,0.7-0.9,1.5-1.5,2c3.6,0.9,5.9,2.1,5.9,3.6
				c0,2.8-8,4.9-17.7,4.9s-17.7-2.1-17.7-4.9C30.9,93.4,33.1,92.2,36.7,91.1z M33.7,34.7c0-8.5,6.7-15.3,14.9-15.3
				s14.9,6.9,14.9,15.3c0,8.6-6.7,15.4-14.9,15.4S33.7,43.2,33.7,34.7z M48.6,92.6c0,0,33.7-31.4,33.7-58C82.2,16.2,67,0,48.6,0
				S14.9,16.2,14.9,34.6C14.9,61.2,48.6,92.6,48.6,92.6z"/>
		</g>
		<g>
			<defs>
				<path id="SVGID_1_" d="M68.5,81.7c-0.7,1.1-1.5,2-2.1,3.1c11.3,2.3,18.8,6.8,18.8,12c0,7.4-16.4,13.6-36.6,13.6
					c-20.4,0-36.7-6-36.7-13.6c0-5.2,7.6-9.6,18.9-12c-0.7-0.9-1.5-2-2.1-3.1C11.7,84.9,0,91.8,0,99.8c0,10.9,21.7,19.8,48.6,19.8
					s48.6-8.9,48.6-19.8C97.1,91.8,85.4,84.9,68.5,81.7z M36.7,91.1c-0.5-0.7-0.9-1.3-1.5-2C27,90.7,21.4,93.7,21.4,97
					c0,4.9,12.1,8.9,27.1,8.9s27.1-4,27.1-8.9c0-3.3-5.6-6.3-13.8-7.8c-0.5,0.7-0.9,1.5-1.5,2c3.6,0.9,5.9,2.1,5.9,3.6
					c0,2.8-8,4.9-17.7,4.9s-17.7-2.1-17.7-4.9C30.9,93.4,33.1,92.2,36.7,91.1z M33.7,34.7c0-8.5,6.7-15.3,14.9-15.3
					s14.9,6.9,14.9,15.3c0,8.6-6.7,15.4-14.9,15.4S33.7,43.2,33.7,34.7z M48.6,92.6c0,0,33.7-31.4,33.7-58C82.2,16.2,67,0,48.6,0
					S14.9,16.2,14.9,34.6C14.9,61.2,48.6,92.6,48.6,92.6z"/>
			</defs>
			<use xlink:href="#SVGID_1_"  style="overflow:visible;fill:#FFFFFF;"/>
			<clipPath id="SVGID_2_">
				<use xlink:href="#SVGID_1_"  style="overflow:visible;"/>
			</clipPath>
			<rect x="-18.6" y="-18.6" class="st1" width="134.5" height="156.8"/>
		</g>
	</g>
</g>
</svg>
