<?xml version="1.0" encoding="utf-8"?>
<!-- Generator: Adobe Illustrator 19.1.0, SVG Export Plug-In . SVG Version: 6.00 Build 0)  -->
<svg version="1.1" id="Layer_2" xmlns="http://www.w3.org/2000/svg" xmlns:xlink="http://www.w3.org/1999/xlink" x="0px" y="0px"
	 width="65.6px" height="103.4px" viewBox="-785.1 1096.2 65.6 103.4" style="enable-background:new -785.1 1096.2 65.6 103.4;"
	 xml:space="preserve">
<style type="text/css">
	.st0{fill:#FFFFFF;}
	.st1{fill:#52FFDB;}
	.st2{fill:#47A59B;}
	.st3{fill:#47E4C2;}
	.st4{opacity:0.6669;fill:#47E4C2;enable-background:new    ;}
</style>
<circle class="st0" cx="-752.3" cy="1123.4" r="10.1"/>
<g id="XMLID_2_">
	<path id="XMLID_7_" class="st1" d="M-742.6,1123.4c0,5.2-4.3,9.6-9.7,9.6c-5.3,0-9.7-4.3-9.7-9.6c0-0.3,0-0.6,0.1-0.9h-4.1
		c0,0.3-0.1,0.6-0.1,0.9c0,7.5,6.1,13.6,13.7,13.6c7.6,0,13.7-6.1,13.7-13.6c0-0.3,0-0.6-0.1-0.9h-4.1
		C-742.6,1122.8-742.6,1123.1-742.6,1123.4z"/>
	<path id="XMLID_6_" class="st2" d="M-752.2,1109.8c-7.3,0-13.2,5.6-13.7,12.8h4.1c0.5-4.9,4.6-8.7,9.6-8.7s9.2,3.8,9.6,8.7h4.1
		C-739.1,1115.4-745,1109.8-752.2,1109.8z"/>
	<g id="Group-3-Copy_1_" transform="translate(2.130949, 140.850060)">
		<g id="Group-3_1_">
			<path id="BOO_x21__1_" class="st3" d="M-787.2,1039.4h7.9c2.3,0,3.9,0.6,5,1.6c0.8,0.8,1.2,1.9,1.2,3.1v0.1
				c0,1.1-0.3,2.1-1.1,2.9c-0.7,0.7-1.6,1.3-2.7,1.6c0.7,0.1,1.3,0.2,1.9,0.6c0.6,0.2,1.1,0.6,1.5,1c0.4,0.4,0.7,0.9,1,1.4
				s0.4,1.1,0.4,1.7v0.1c0,1.6-0.6,2.8-1.8,3.6c-1.2,0.8-2.9,1.3-5.1,1.3h-8.2L-787.2,1039.4L-787.2,1039.4z M-763.3,1057.9
				c-1.1-0.6-2.1-1.2-3-2.1c-0.8-0.9-1.5-2-1.9-3.1c-0.4-1.1-0.7-2.4-0.7-3.7c0-1.4,0.2-2.6,0.7-3.8c0.4-1.1,1.1-2.2,1.9-3.1
				c0.8-0.9,1.8-1.6,3-2.1c1.1-0.6,2.5-0.8,3.9-0.8c1.4,0,2.8,0.2,3.9,0.8c1.1,0.6,2.2,1.2,3,2.1s1.5,2,1.9,3.1
				c0.4,1.1,0.7,2.4,0.7,3.7c0,1.4-0.2,2.6-0.7,3.8c-0.4,1.1-1.1,2.2-1.9,3.1s-1.8,1.6-3,2.1c-1.1,0.6-2.5,0.8-3.9,0.8
				C-760.7,1058.7-762,1058.4-763.3,1057.9z M-736.8,1058.7c-1.5,0-2.8-0.2-3.9-0.8c-1.1-0.6-2.1-1.2-3-2.1c-0.8-0.9-1.5-2-1.9-3.1
				c-0.4-1.1-0.7-2.4-0.7-3.7v-0.1c0-1.3,0.2-2.5,0.7-3.7c0.4-1.1,1.1-2.2,1.9-3.1c0.8-0.9,1.8-1.6,3-2.1c1.1-0.6,2.5-0.8,3.9-0.8
				c1.4,0,2.8,0.2,3.9,0.8c1.1,0.6,2.2,1.2,3,2.1s1.5,2,1.9,3.1c0.4,1.1,0.7,2.4,0.7,3.7v0.1c0,1.3-0.2,2.5-0.7,3.7
				c-0.4,1.1-1.1,2.2-1.9,3.1s-1.8,1.6-3,2.1S-735.4,1058.7-736.8,1058.7L-736.8,1058.7z M-723.6,1057h2v1.4h-2V1057z
				 M-723.4,1042.3v-2.9h1.6v2.9l-0.2,11h-1.2L-723.4,1042.3z"/>
		</g>
	</g>
	<g id="XMLID_3_">
		<path id="XMLID_5_" class="st2" d="M-756.4,1121.2c-1.6,0-2.8,1.2-2.8,2.8c0,1.6,1.2,2.8,2.8,2.8c1.6,0,2.8-1.2,2.8-2.8
			C-753.6,1122.4-754.9,1121.2-756.4,1121.2z M-756.3,1125.7c-0.4,0-0.8-0.3-0.8-0.8c0-0.4,0.3-0.8,0.8-0.8s0.8,0.3,0.8,0.8
			C-755.6,1125.4-755.9,1125.7-756.3,1125.7z"/>
		<path id="XMLID_4_" class="st2" d="M-748.2,1121.2c-1.6,0-2.8,1.2-2.8,2.8c0,1.6,1.2,2.8,2.8,2.8s2.8-1.2,2.8-2.8
			C-745.4,1122.4-746.7,1121.2-748.2,1121.2z M-748.2,1125.7c-0.4,0-0.8-0.3-0.8-0.8c0-0.4,0.3-0.8,0.8-0.8c0.4,0,0.8,0.3,0.8,0.8
			C-747.3,1125.4-747.7,1125.7-748.2,1125.7z"/>
	</g>
	<ellipse id="Oval-26_1_" class="st4" cx="-752.6" cy="1164.9" rx="12.7" ry="2.7"/>
	<path id="Fill-52_1_" class="st3" d="M-752.6,1111.3c-6.5,0-11.8,5.4-11.8,12.1c0,6.7,5.3,12.1,11.8,12.1s11.8-5.4,11.8-12.1
		C-740.8,1116.7-746,1111.3-752.6,1111.3L-752.6,1111.3z M-771.9,1144c-10.6-10.9-10.6-28.6,0-39.6c5.2-5.2,12-8.2,19.3-8.2
		s14.2,2.9,19.3,8.2c10.6,10.9,10.6,28.6,0,39.6l-19.3,19.8L-771.9,1144z"/>
</g>
</svg>
