<?xml version="1.0" encoding="utf-8"?>
<!-- Generator: Adobe Illustrator 19.0.0, SVG Export Plug-In . SVG Version: 6.00 Build 0)  -->
<svg version="1.1" id="Layer_1" xmlns="http://www.w3.org/2000/svg" xmlns:xlink="http://www.w3.org/1999/xlink" x="0px" y="0px"
	 width="131.3px" height="136.9px" viewBox="0 0 131.3 136.9" style="enable-background:new 0 0 131.3 136.9;" xml:space="preserve"
	>
<style type="text/css">
	.st0{fill:#FFFFFF;}
</style>
<g>
	<path id="XMLID_15_" class="st0" d="M116,87.3c-3.6-0.3-24.3-6.7-31.9-10c-0.2,9.2-0.5,24.7-0.6,25.8c-0.2,1.7-2.6,9.5-10.3,19.6
		c0,0-0.6-6.8-1.2-15.1c-0.5-6.2-4.5-9.5-4.5-12.8c0-0.8,3-2.8,3-4.8c0-2-0.6-4-4.8-4s-4.8,2-4.8,4s3,4,3,4.8
		c0,3.3-3.9,6.5-4.5,12.8c-0.6,8.2-1.2,15.1-1.2,15.1c-7.6-10.1-10.1-17.9-10.3-19.6c-0.2-1.2-0.5-16.6-0.6-25.8
		c-7.6,3.3-28.3,9.6-31.9,10c-4.2,0.3-5.3,1.6-7.3,5.1C5.8,96,0.8,113.7,0,125.1c6.5,2.5,36.9,11.8,65.8,11.8s59.3-9.3,65.5-11.8
		c-0.8-11.4-5.8-29.1-7.9-32.7C121.3,88.8,120.2,87.7,116,87.3z"/>
	<path id="XMLID_14_" class="st0" d="M41.1,37.8c0.2,1.9,0.5,7,0.9,11.2c0.3,4.2,2.8,3.6,3.3,3.1c0,5.8,4.7,11.4,4.7,11.4
		c2.2,3.4,9.8,8.1,15.9,8.1c-11.2,0-15.9-4.5-15.9-4.5c0,3.1,0,7.2,0,8.7l13.7,9.3h4.2l13.7-9.3c0-2.5,0-12.4,0-12.4
		s4.7-5.8,4.7-11.4c0.5,0.5,3,1.1,3.3-3.1c0.3-4.2,0.8-9.3,0.9-11.2s-2.3-1.6-2.5-0.5c0-1.6-0.2-2.2,0-2.3c0.2-0.2,1.6-1.7,1.6-3.1
		c0-1.4,0.8-2.3,0.8-5s0-9.3,0-11.2c0-1.7-1.7-0.8-1.7-1.7c0-0.9-1.1-5.1-6.7-5.1c1.6-1.2,2.5-5.1,2.2-6.8c-0.5,1.2-2.8,2-4,2
		C73.6,4,71.1-0.2,63.5,0C53.4,0.2,49.6,5.4,49.6,8.7c-5.6,0-6.7,4.2-6.7,5.1c0,0.9-1.7-0.2-1.7,1.7c0,1.7,0,8.6,0,11.2
		s0.8,3.6,0.8,5c0,1.4,1.4,3,1.6,3.1c0.2,0.2,0,0.8,0,2.3C43.6,36.2,41.1,35.8,41.1,37.8z"/>
</g>
</svg>
