<?xml version="1.0" encoding="utf-8"?>
<!-- Generator: Adobe Illustrator 19.0.0, SVG Export Plug-In . SVG Version: 6.00 Build 0)  -->
<svg version="1.1" id="Layer_1" xmlns="http://www.w3.org/2000/svg" xmlns:xlink="http://www.w3.org/1999/xlink" x="0px" y="0px"
	 viewBox="-314 380 86 80" style="enable-background:new -314 380 86 80;" xml:space="preserve">
<style type="text/css">
	.st0{fill:none;stroke:#47E4C2;stroke-width:2;stroke-linecap:round;stroke-linejoin:round;}
</style>
<g transform="translate(0,-952.36218)">
	<path class="st0" d="M-276,1400.2l37.1-26.9l-37.1-26.8l0,0l0,0"/>
</g>
</svg>
