<?xml version="1.0" encoding="utf-8"?>
<!-- Generator: Adobe Illustrator 19.0.0, SVG Export Plug-In . SVG Version: 6.00 Build 0)  -->
<svg version="1.1" id="Layer_1" xmlns="http://www.w3.org/2000/svg" xmlns:xlink="http://www.w3.org/1999/xlink" x="0px" y="0px"
	 width="214.6px" height="269.4px" viewBox="0 0 214.6 269.4" style="enable-background:new 0 0 214.6 269.4;" xml:space="preserve"
	>
<style type="text/css">
	.st0{fill:#231F20;}
</style>
<g>
	<path class="st0" d="M98.9,156.1c0-27.3-22.2-49.5-49.5-49.5C22.2,106.6,0,128.8,0,156.1c0,8,1.9,15.5,5.3,22.2l44.2,91.1
		l44.2-91.1C97,171.6,98.9,164.1,98.9,156.1z M49.5,183.5c-15.1,0-27.4-12.3-27.4-27.4c0-15.1,12.3-27.4,27.4-27.4
		c15.1,0,27.4,12.3,27.4,27.4C76.8,171.2,64.5,183.5,49.5,183.5z"/>
	<path class="st0" d="M189.6,0c-13.8,0-25,11.2-25,25c0,4,1,7.9,2.7,11.3l22.4,46.1l22.4-46.1c1.7-3.4,2.7-7.2,2.7-11.2
		C214.6,11.2,203.4,0,189.6,0z M189.6,38.9c-7.6,0-13.9-6.2-13.9-13.9c0-7.6,6.2-13.9,13.9-13.9c7.6,0,13.9,6.2,13.9,13.9
		C203.4,32.7,197.2,38.9,189.6,38.9z"/>
	<path id="XMLID_14_" class="st0" d="M167.8,162.5c-1-4.8-2.3-9.5-4-14.1c-2.2-6.2-4.9-12.2-6.9-18.4c-3.8-11.6,2.8-21.4,4-23.1
		c2.2-3.1,4.7-5.9,7.4-8.6c5.2-5.1,10.9-9.7,16.8-13.9c-0.7-1.1-1.5-2.3-2.1-3.5c-8.6,3.4-52.6,18.8-51.5,52.8
		c0.2,6.8,2.8,13.3,4.5,19.9c0.8,3.2,1.5,6.4,1.9,9.7c0.2,1.5,0.3,2.9,0.4,4.4c0,0,0,0,0,0c0,0,0.1,4.7-0.1,6.7
		c-0.6,6.3-1.6,12.6-4.2,18.4c-2.5,5.4-6.2,10-10.8,13.7c-10.5,8.4-24.4,11.8-37.5,13.1c-0.6,0.1-1.2,0.1-1.9,0.2l-23.4,48.3
		c11.6-0.7,23.1-2.3,34.3-5.1c13.2-3.3,26.1-8.2,37.7-15.5c11.5-7.3,21.5-17.1,28.1-29.1c6.9-12.6,9.7-26.9,9.1-41.2
		C169.2,172.2,168.8,167.2,167.8,162.5z"/>
</g>
</svg>
