<?xml version="1.0" encoding="utf-8"?>
<!-- Generator: Adobe Illustrator 19.0.0, SVG Export Plug-In . SVG Version: 6.00 Build 0)  -->
<svg version="1.1" id="Layer_1" xmlns="http://www.w3.org/2000/svg" xmlns:xlink="http://www.w3.org/1999/xlink" x="0px" y="0px"
	 width="558.7px" height="434.6px" viewBox="-12.8 205.3 558.7 434.6" style="enable-background:new -12.8 205.3 558.7 434.6;"
	 xml:space="preserve">
<style type="text/css">
	.st0{font-family:'SanFranciscoDisplay-Regular';}
	.st1{font-size:14px;}
	.st2{font-size:13px;}
	.st3{fill:#010101;}
	.st4{enable-background:new    ;}
	.st5{fill:none;}
	.st6{fill:none;stroke:#8C8C8C;stroke-miterlimit:10;stroke-dasharray:10.2235,5.1118;}
</style>
<text transform="matrix(1 0 0 1 1.5967 452.0139)" class="st0 st1">Coleta de dados </text>
<text transform="matrix(1 0 0 1 -12.8033 472.0139)" class="st0 st1">ativa e passivamente</text>
<text transform="matrix(1 0 0 1 225.0261 293.3509)" class="st0 st1">Monetização de dados</text>
<text transform="matrix(1 0 0 1 484.7235 448.7039)" class="st0 st1">Macro e </text>
<text transform="matrix(1 0 0 1 471.0235 468.7039)" class="st0 st1">Micro Locais</text>
<text transform="matrix(1 0 0 1 340.4168 634.1917)" class="st0 st2">Segmentação de público</text>
<text transform="matrix(1 0 0 1 80.1078 632.3361)" class="st0 st1">Atribuição no mundo físico</text>
<path class="st3" d="M413.6,539.8L413.6,539.8c-0.2-0.6-0.2-1.1,0-1.7c0.2-0.6,0.5-1.1,0.9-1.5c0.2-0.2,0.5-0.5,0.8-0.6
	c0.2-0.2,0.5-0.3,0.8-0.4l0,0c0.2-0.1,0.5-0.2,0.7-0.2c0.1,0,0.2,0,0.3,0c0.6,0,1.1,0.2,1.5,0.4c0.6,0.3,0.9,0.8,0.9,0.8
	s1.6,0.1,0.9,3.5c0.2,0.1,0.4,0.4,0.1,1.2c-0.2,0.8-0.5,1.1-0.6,1.1s-0.1,0-0.2-0.1c-0.1,0.4-0.2,0.8-0.3,1.1v1.2l0,0
	c-0.7-0.4-1.5-0.6-2.4-0.6c-0.2,0-0.3,0-0.5,0c-0.4,0-0.9,0.1-1.3,0.2c-0.2,0.1-0.5,0.2-0.7,0.3v-1.1c-0.2-0.5-0.4-1-0.5-1.5
	c-0.2,0-0.4-0.2-0.6-1.1C413,540,413.3,539.8,413.6,539.8z M436.9,564c0.2-0.2,0.3-0.3,0.5-0.5c1.7-1.5,3.6-2.5,4.7-3.2
	c-0.2-0.3-0.3-0.7-0.4-1.1c-0.5-0.6-0.7-1.5-0.9-1.9c-0.1-0.2-0.1-0.3-0.1-0.5c-0.5-0.2-0.9-0.5-1-0.6c-0.1,0-0.1-0.1-0.1-0.2v-1.4
	c0.2-0.4,0.3-0.9,0.4-1.3c0,0,0.1,0.1,0.2,0.1c0.2,0,0.4-0.2,0.7-1.2c0.2-1,0.1-1.3-0.2-1.4c0.8-3.7-1-3.8-1-3.8s-0.2-0.5-1-0.9
	c-0.4-0.2-1-0.4-1.6-0.4c-0.1,0-0.2,0-0.3,0c-0.2,0-0.6,0.1-0.8,0.2l0,0c-0.3,0.1-0.6,0.2-0.9,0.5c-0.3,0.2-0.6,0.5-0.9,0.7
	c-0.4,0.4-0.8,1-1,1.7c-0.2,0.6-0.2,1.2,0.1,1.9c0,0,0,0-0.1,0c-0.2,0-0.5,0.2-0.4,1c0.1,0.2,0.2,0.5,0.2,0.7
	c0.2,0.7,0.4,0.9,0.6,0.9c0.1,0.5,0.2,1.1,0.6,1.6v1.2c0,0.1,0,0.1-0.1,0.2c-0.2,0.1-0.5,0.2-1,0.5c0,0.2-0.1,0.5-0.2,0.7
	c-0.2,0.4-0.4,1.5-1.1,2.1c-0.1,0.2-0.1,0.3-0.2,0.5v0.2c1.1,0.6,3,1.7,4.8,3.2C436.6,563.7,436.7,563.8,436.9,564z M399.2,547.3
	c0,0-0.2-0.5-1-0.9c-0.4-0.2-1-0.4-1.6-0.4c-0.1,0-0.2,0-0.3,0c-0.2,0-0.6,0.1-0.8,0.2l0,0c-0.3,0.1-0.6,0.2-0.9,0.5
	c-0.3,0.2-0.6,0.5-0.9,0.7c-0.4,0.4-0.8,1-1,1.7c-0.2,0.6-0.2,1.2,0.1,1.9c0,0,0,0-0.1,0c-0.2,0-0.5,0.2-0.4,1
	c0.1,0.2,0.2,0.5,0.2,0.7c0.2,0.7,0.4,0.9,0.6,0.9c0.1,0.5,0.2,1.1,0.6,1.6v1.2c0,0.1,0,0.1-0.1,0.2c-0.2,0.1-0.5,0.2-1,0.5
	c0,0.2-0.1,0.5-0.2,0.7c-0.2,0.4-0.4,1.5-1.1,2.1c-0.1,0.2-0.1,0.3-0.2,0.5v0.2c1.1,0.6,3,1.7,4.8,3.2c0.2,0.2,0.3,0.3,0.5,0.5
	c0.2-0.2,0.3-0.3,0.5-0.5c1.7-1.5,3.6-2.5,4.7-3.2c-0.2-0.3-0.3-0.7-0.4-1.1c-0.5-0.6-0.7-1.5-0.9-1.9c-0.1-0.2-0.1-0.3-0.1-0.5
	c-0.5-0.2-0.9-0.5-1-0.6c-0.1,0-0.1-0.1-0.1-0.2v-1.4c0.2-0.4,0.3-0.9,0.4-1.3c0,0,0.1,0.1,0.2,0.1c0.2,0,0.4-0.2,0.7-1.2
	c0.2-1,0.1-1.3-0.2-1.4C401,547.4,399.2,547.3,399.2,547.3z M455.5,565c-2.3-1.9-4.9-3.2-5.3-3.4c-0.1,0-0.1-0.1-0.1-0.2v-1.5
	c0.2-0.5,0.4-1,0.5-1.5c0.1,0,0.1,0.1,0.2,0.1c0.2,0,0.5-0.2,0.8-1.3s0.2-1.5-0.2-1.5c0.9-4.1-1.1-4.3-1.1-4.3s-0.3-0.6-1.1-1.1
	c-0.5-0.2-1.1-0.5-1.9-0.5c-0.2,0-0.2,0-0.4,0c-0.3,0-0.6,0.1-0.9,0.2l0,0c-0.3,0.1-0.6,0.3-1,0.5c-0.3,0.2-0.7,0.5-1,0.8
	c-0.5,0.5-0.9,1.1-1.1,1.9c-0.2,0.6-0.2,1.4,0.1,2.1h-0.1c-0.3,0-0.6,0.2-0.3,1.5c0.3,1.1,0.6,1.3,0.7,1.3c0.1,0.6,0.2,1.2,0.6,1.9
	v1.4c0,0.1,0,0.1-0.1,0.2c-0.5,0.2-3,1.5-5.3,3.4c-0.4,0.3-0.6,0.9-0.6,1.4v2.6v9.6c0,1.5,0.5,2.8,1.4,3.9l1.9,2.3l1.8,22.5
	c0.1,0.8,0.7,1.4,1.5,1.4h5c0.8,0,1.5-0.6,1.5-1.4l1.8-22.5l1.9-2.3c0.9-1.1,1.5-2.5,1.5-4v-9.6v-2.6
	C456.1,565.9,455.9,565.3,455.5,565z M383.2,561.6c-0.5,0.2-3,1.5-5.3,3.4c-0.4,0.3-0.6,0.9-0.6,1.4v2.6v9.6c0,1.5,0.5,2.8,1.4,3.9
	l1.9,2.3l1.8,22.5c0.1,0.8,0.7,1.4,1.5,1.4h5c0.8,0,1.5-0.6,1.5-1.4l1.8-22.5l1.9-2.3c0.9-1.1,1.5-2.5,1.5-4v-9.6v-2.6
	c0-0.6-0.2-1.1-0.6-1.4c-2.3-1.9-4.9-3.2-5.3-3.4c-0.1,0-0.1-0.1-0.1-0.2v-1.5c0.2-0.5,0.4-1,0.5-1.5c0.1,0,0.1,0.1,0.2,0.1
	c0.2,0,0.5-0.2,0.8-1.3c0.3-1.1,0.1-1.5-0.2-1.5c0.9-4.1-1.1-4.3-1.1-4.3s-0.3-0.6-1.1-1c-0.5-0.2-1.1-0.5-1.9-0.5
	c-0.2,0-0.2,0-0.4,0c-0.3,0-0.6,0.1-0.9,0.2l0,0c-0.3,0.1-0.6,0.3-1,0.5c-0.3,0.2-0.7,0.5-1,0.8c-0.5,0.5-0.9,1.1-1.1,1.9
	c-0.2,0.6-0.2,1.4,0.1,2.1h-0.1c-0.3,0-0.6,0.2-0.3,1.5c0.1,1,0.3,1.3,0.5,1.3c0.1,0.6,0.2,1.2,0.6,1.9L383.2,561.6
	C383.3,561.5,383.3,561.6,383.2,561.6z M422.7,545.1c0.2,0.9,0.5,1.1,0.6,1.1c0.1,0.5,0.2,1.1,0.6,1.5v1.1c0.4-0.2,0.9-0.5,1.3-0.6
	c0.4-0.2,0.9-0.2,1.4-0.2c0.2,0,0.3,0,0.5,0c0.7,0,1.4,0.2,2,0.4v-0.6c0.2-0.4,0.3-0.8,0.4-1.2c0,0,0.1,0.1,0.2,0.1
	c0.2,0,0.4-0.2,0.6-1.1c0.2-1,0.1-1.2-0.2-1.3c0.7-3.6-1-3.7-1-3.7s-0.2-0.5-1-0.9c-0.4-0.2-0.9-0.4-1.6-0.4c-0.1,0-0.2,0-0.3,0
	c-0.2,0-0.5,0.1-0.7,0.2l0,0c-0.3,0.1-0.6,0.2-0.8,0.4c-0.3,0.2-0.6,0.4-0.9,0.7c-0.4,0.4-0.8,1-1,1.6c-0.2,0.6-0.2,1.2,0.1,1.9
	c0,0,0,0-0.1,0C422.6,543.7,422.3,544,422.7,545.1z M403.1,545.1c0.2,0.9,0.5,1.1,0.6,1.1c0.1,0.5,0.2,1.1,0.6,1.5v0.6
	c0.2-0.1,0.4-0.2,0.6-0.2l0,0l0,0c0.4-0.2,0.9-0.2,1.4-0.2c0.2,0,0.3,0,0.5,0c1,0,1.9,0.2,2.8,0.7v-1c0.2-0.4,0.3-0.8,0.4-1.2
	c0,0,0.1,0.1,0.2,0.1c0.2,0,0.4-0.2,0.6-1.1c0.2-1,0.1-1.2-0.2-1.3c0.7-3.6-1-3.7-1-3.7s-0.2-0.5-1-0.9c-0.4-0.2-0.9-0.4-1.6-0.4
	c-0.1,0-0.2,0-0.3,0c-0.2,0-0.5,0.1-0.7,0.2l0,0c-0.3,0.1-0.6,0.2-0.8,0.4c-0.3,0.2-0.6,0.4-0.9,0.7c-0.4,0.4-0.8,1-1,1.6
	c-0.2,0.6-0.2,1.2,0.1,1.9c0,0,0,0-0.1,0C403.1,543.7,402.8,544,403.1,545.1z M413.9,556.5c-0.2,0.1-0.5,0.2-1,0.5
	c0,0.2-0.1,0.5-0.2,0.7c-0.2,0.4-0.4,1.5-1.1,2.1c-0.1,0.2-0.1,0.3-0.2,0.5v0.2c1.1,0.6,3,1.7,4.8,3.2c0.2,0.2,0.3,0.3,0.5,0.5
	c0.2-0.2,0.3-0.3,0.5-0.5c1.7-1.5,3.6-2.5,4.7-3.2c-0.2-0.3-0.3-0.7-0.4-1.1c-0.5-0.6-0.7-1.5-0.9-1.9c-0.1-0.2-0.1-0.3-0.1-0.5
	c-0.5-0.2-0.9-0.5-1-0.6c-0.1,0-0.1-0.1-0.1-0.2v-1.4c0.2-0.4,0.3-0.9,0.4-1.3c0,0,0.1,0.1,0.2,0.1c0.2,0,0.4-0.2,0.7-1.2
	c0.2-1,0.1-1.3-0.2-1.4c0.8-3.7-1-3.8-1-3.8s-0.2-0.5-1-0.9c-0.4-0.2-1-0.4-1.6-0.4c-0.1,0-0.2,0-0.3,0c-0.2,0-0.6,0.1-0.8,0.2l0,0
	c-0.3,0.1-0.6,0.2-0.9,0.5c-0.3,0.2-0.6,0.5-0.9,0.7c-0.4,0.4-0.8,1-1,1.7c-0.2,0.6-0.2,1.2,0.1,1.9c0,0,0,0-0.1,0
	c-0.2,0-0.5,0.2-0.4,1c0.1,0.2,0.2,0.5,0.2,0.7c0.2,0.7,0.4,0.9,0.6,0.9c0.1,0.5,0.2,1.1,0.6,1.6v1.2
	C414,556.4,413.9,556.4,413.9,556.5z M430.8,607.3l1.8-22.5l1.9-2.3c0.9-1.1,1.5-2.5,1.5-4v-9.6v-2.6c0-0.6-0.2-1.1-0.6-1.4
	c-2.3-1.9-4.9-3.2-5.3-3.4c-0.1,0-0.1-0.1-0.1-0.2v-1.5c0.2-0.5,0.4-1,0.5-1.5c0.1,0,0.1,0.1,0.2,0.1c0.2,0,0.5-0.2,0.8-1.3
	c0.3-1.1,0.2-1.5-0.2-1.5c0.9-4.1-1.1-4.3-1.1-4.3s-0.5-0.6-1.3-1.1c-0.5-0.2-1.1-0.5-1.9-0.5c-0.2,0-0.2,0-0.4,0
	c-0.3,0-0.6,0.1-0.9,0.2l0,0c-0.3,0.1-0.6,0.3-1,0.5c-0.3,0.2-0.7,0.5-1,0.8c-0.5,0.5-0.9,1.1-1.1,1.9c-0.2,0.6-0.2,1.4,0.1,2.1
	h-0.1c-0.3,0-0.6,0.2-0.3,1.5c0.3,1.1,0.6,1.3,0.7,1.3c0.1,0.6,0.2,1.2,0.6,1.9v1.4c0,0.1,0,0.1-0.1,0.2c-0.5,0.2-3,1.5-5.3,3.4
	c-0.4,0.3-0.6,0.9-0.6,1.4v2.6v9.6c0,1.5,0.5,2.8,1.4,3.9l1.9,2.3l1.8,22.5c0.1,0.8,0.7,1.4,1.5,1.4h5
	C430.1,608.7,430.8,608.1,430.8,607.3z M403.5,561.6c-0.5,0.2-3,1.5-5.3,3.4c-0.4,0.3-0.6,0.9-0.6,1.4v2.6v9.6
	c0,1.5,0.5,2.8,1.4,3.9l1.9,2.3l1.8,22.5c0.1,0.8,0.7,1.4,1.5,1.4h5c0.8,0,1.5-0.6,1.5-1.4l1.8-22.5l1.9-2.3c0.9-1.1,1.5-2.5,1.5-4
	v-9.6v-2.6c0-0.6-0.2-1.1-0.6-1.4c-2.3-1.9-4.9-3.2-5.3-3.4c-0.1,0-0.1-0.1-0.1-0.2v-1.5c0.2-0.5,0.4-1,0.5-1.5
	c0.1,0,0.1,0.1,0.2,0.1c0.2,0,0.5-0.2,0.8-1.3c0.3-1.1,0.1-1.5-0.2-1.5c0.9-4.1-1.1-4.3-1.1-4.3s-0.3-0.6-1.1-1
	c-0.5-0.2-1.1-0.5-1.9-0.5c-0.2,0-0.2,0-0.4,0c-0.3,0-0.6,0.1-0.9,0.2l0,0c-0.3,0.1-0.6,0.3-1,0.5c-0.3,0.2-0.7,0.5-1,0.8
	c-0.5,0.5-0.9,1.1-1.1,1.9c-0.2,0.6-0.2,1.4,0.1,2.1h-0.1c-0.3,0-0.6,0.2-0.3,1.5c0.3,1.1,0.6,1.3,0.7,1.3c0.1,0.6,0.2,1.2,0.6,1.9
	v1.4C403.5,561.5,403.5,561.6,403.5,561.6z"/>
<g>
	<g class="st4">
		<g>
			<g>
				<path class="st3" d="M514.5,348.5c-11,0-19.9,9-19.9,20.1s8.9,20.1,19.9,20.1s19.9-9,19.9-20.1S525.5,348.5,514.5,348.5z
					 M514.5,379.7c-6.1,0-11-5-11-11.2s4.9-11.2,11-11.2s11,5,11,11.2S520.6,379.7,514.5,379.7z"/>
			</g>
		</g>
	</g>
	<g class="st4">
		<g>
			<g>
				<path class="st3" d="M514.5,386.1l-19.9-17.9c0,19.1,19.9,28.7,19.9,28.7s19.9-9.5,19.9-28.7L514.5,386.1z"/>
			</g>
		</g>
	</g>
	<g class="st4">
		<g>
			<g>
				<path class="st3" d="M514.5,401.2l-19.8-17.9c0,0.1,19.9,27.9,19.9,27.9s19.9-27.8,19.9-27.9L514.5,401.2z"/>
			</g>
		</g>
	</g>
	<g class="st4">
		<g>
			<g>
				<path class="st3" d="M514.5,414.7l-12.7-15.5c0,0.1,12.7,20.7,12.7,20.7l12.7-20.7L514.5,414.7z"/>
			</g>
		</g>
	</g>
</g>
<g>
	<g>
		<circle class="st3" cx="56.3" cy="371" r="8.9"/>
		<path class="st3" d="M78.7,384c0.5,0,0.8,0,1.2,0.1c1.7-4.4,3-8.8,3-12.9c0-14.8-11.9-26.6-26.6-26.6S29.7,356.3,29.7,371
			c0,17.1,19.2,38.4,22.2,41.6c1.2,1.4,2.3,2.6,4.5,2.6c2.1,0,3.2-1.3,4.5-2.6c0.4-0.4,1-1.1,1.7-1.9c-1.3-2.5-2-5.4-2-8.5
			C60.4,392.1,68.6,384,78.7,384z M56.3,388.7c-9.8,0-17.7-7.9-17.7-17.7s7.9-17.7,17.7-17.7S74,361.3,74,371S66.1,388.7,56.3,388.7
			z"/>
	</g>
	<path class="st3" d="M79.1,387.8c-8.1,0-14.7,6.6-14.7,14.7c0,8.1,6.6,14.6,14.7,14.6s14.7-6.6,14.7-14.7
		C93.8,394.3,87.2,387.8,79.1,387.8z M84.6,408.3c0,0.1,0,0.1,0,0.2c-0.3,1.4-3.3,2.3-6.9,2.3s-6.6-1-6.9-2.3c0,0,0-0.1,0-0.2V406
		c1.1,0.8,3.5,1.4,7,1.4c3.4,0,5.8-0.6,7-1.4v2.3H84.6z M84.6,404.7v0.2v0.2v0.4c-0.8,0.8-3.4,1.6-7,1.6s-6.1-0.8-7-1.6v-0.4v-0.2
		v-0.2v-2c0.4,0.2,0.8,0.5,1.4,0.7c1.1,0.4,2.8,0.7,4.8,0.8c0.2,0,0.5,0,0.8,0c0.2,0,0.5,0,0.8,0c2-0.1,3.6-0.4,4.8-0.8
		c0.5-0.2,1.1-0.4,1.4-0.7L84.6,404.7L84.6,404.7z M84.6,401.4v0.2v0.2v0.3c-0.8,0.8-3,1.4-6.2,1.6h-0.1c-0.1,0-0.2,0-0.3,0
		c-0.2,0-0.2,0-0.4,0c-0.2,0-0.2,0-0.4,0c-0.1,0-0.2,0-0.3,0h-0.1c-3-0.1-5.4-0.8-6.1-1.6v-0.4v-0.2v-0.2v-2c1.4,0.9,4.2,1.4,7,1.4
		c2.7,0,5.6-0.5,7-1.4L84.6,401.4L84.6,401.4z M84.6,398.3v0.5c-0.8,0.8-3.4,1.6-7,1.6s-6.1-0.8-7-1.6v-0.5v-0.2
		c0-0.1,0-0.1,0.1-0.2c0.3-1.2,2.7-2.3,6.9-2.3c4.2,0,6.6,1.2,6.9,2.3c0,0.1,0,0.1,0,0.2L84.6,398.3L84.6,398.3z M87.4,406.8
		c0,0.1,0,0.1,0,0.2c-0.2,0.7-1,1.2-2.1,1.7c0.1-0.2,0.2-0.3,0.2-0.5c0-0.1,0-0.1,0-0.2v-2.6l2-0.9L87.4,406.8L87.4,406.8z
		 M87.4,403.2v0.2v0.2v0.4c-0.4,0.4-1.1,0.8-2.2,1.1V405v-0.2v-0.2v-2.3L86,402c0.5-0.2,1.1-0.4,1.4-0.7
		C87.4,401.3,87.4,403.2,87.4,403.2z M87.4,399.9v0.2v0.2v0.4c-0.4,0.4-1.1,0.8-2.2,1.1v-0.3v-0.2v-0.2V399c0.9-0.2,1.7-0.5,2.2-0.9
		V399.9z M87.4,396.8v0.5c-0.4,0.4-1.1,0.8-2.2,1.1v-0.3v-0.2c0-0.1,0-0.1-0.1-0.2c-0.3-1.4-2.8-2.6-7.2-2.6c-1.3,0-2.4,0.2-3.4,0.3
		c1.1-0.7,3.1-1.2,5.9-1.2c4.2,0,6.6,1.2,6.9,2.3C87.3,396.6,87.3,396.6,87.4,396.8L87.4,396.8L87.4,396.8z"/>
</g>
<g>
	<path class="st5" d="M300,235.3c-1.8-0.7-2.5-1.1-2.5-1.8c0-0.6,0.4-1.2,1.8-1.2c1.5,0,2.5,0.5,3,0.7l0.6-2.4
		c-0.7-0.3-1.6-0.6-3-0.7v-1.8h-2.1v2c-2.3,0.4-3.6,1.9-3.6,3.7c0,2,1.5,3.1,3.8,3.8c1.6,0.5,2.2,1,2.2,1.8s-0.8,1.3-2,1.3
		c-1.4,0-2.6-0.4-3.5-0.9l-0.6,2.5c0.8,0.5,2.2,0.8,3.6,0.9v2h2.1v-2.1c2.4-0.4,3.7-2,3.7-3.9C303.5,237.4,302.5,236.2,300,235.3z"
		/>
	<path d="M321.9,249.8c-1.5,0-2.9,0.5-4,1.3l-8.3-7c1.4-2.1,2.3-4.6,2.3-7.4c0-2.3-0.6-4.5-1.7-6.4l6.5-4.6c1.3,1.3,3.2,2.1,5.2,2.1
		c4.1,0,7.5-3.3,7.5-7.5c0-4.1-3.3-7.5-7.5-7.5c-4.1,0-7.5,3.4-7.5,7.5c0,1.1,0.3,2.2,0.7,3.1l-6.5,4.6c-1.6-1.8-3.7-3.2-6.1-3.9
		l0.7-4c2.3-0.3,4.1-2.2,4.1-4.6c0-2.6-2.1-4.7-4.7-4.7s-4.7,2.1-4.7,4.7c0,1.8,1,3.3,2.5,4.1l-0.7,4c-0.3,0-0.6,0-0.9,0
		c-2.9,0-5.5,0.9-7.7,2.5L280,214c0.6-0.9,0.9-1.9,0.9-3.1c0-3.1-2.5-5.6-5.6-5.6s-5.6,2.5-5.6,5.6c0,3.1,2.5,5.6,5.6,5.6
		c0.9,0,1.8-0.2,2.6-0.6l11.1,12.2c-1.9,2.2-3.2,5-3.3,8.2l-15.4,1c-0.7-2.2-2.8-3.8-5.3-3.8c-3.1,0-5.6,2.5-5.6,5.6
		c0,3.1,2.5,5.6,5.6,5.6c2.7,0,5-2,5.5-4.6l15.4-1.1c0.7,3.8,3,7,6.2,9l-3,6.6c-0.4-0.1-0.9-0.1-1.4-0.1c-3.6,0-6.5,2.9-6.5,6.5
		s2.9,6.5,6.5,6.5s6.5-2.9,6.5-6.5c0-2.1-1-4-2.6-5.2l3-6.6c1.3,0.4,2.7,0.7,4.1,0.7c3.5,0,6.7-1.4,9-3.6l8.3,7
		c-0.5,0.9-0.8,2-0.8,3.1c0,3.6,2.9,6.5,6.5,6.5s6.5-2.9,6.5-6.5C328.4,252.7,325.5,249.8,321.9,249.8z M299.8,243.2v2.1h-2.1v-2
		c-1.4-0.1-2.8-0.4-3.6-0.9l0.6-2.5c0.9,0.5,2.1,0.9,3.5,0.9c1.2,0,2-0.5,2-1.3c0-0.8-0.7-1.3-2.2-1.8c-2.3-0.8-3.8-1.8-3.8-3.8
		c0-1.8,1.3-3.3,3.6-3.7v-2h2.1v1.8c1.4,0.1,2.4,0.4,3,0.7l-0.6,2.4c-0.5-0.2-1.5-0.7-3-0.7c-1.4,0-1.8,0.6-1.8,1.2
		c0,0.7,0.7,1.1,2.5,1.8c2.5,0.9,3.5,2,3.5,3.9C303.5,241.1,302.2,242.7,299.8,243.2z"/>
</g>
<g>
	<g>
		<path d="M282.7,400.7c-0.8,0.8-0.8,2.1,0.1,2.9l8.3,8l0,0c0.2,0.2,0.4,0.3,0.6,0.4c0,0,0,0,0.1,0c0.2,0.1,0.5,0.1,0.7,0.1l0,0l0,0
			l0,0c0.3,0,0.5-0.1,0.7-0.1l0,0c0.2-0.1,0.4-0.2,0.6-0.4l0,0l8.3-8c0.8-0.8,0.8-2.1,0.1-2.9c-0.8-0.8-2.1-0.8-2.9-0.1l-4.9,4.7
			v-27.4c0-1.1-0.9-2-2-2s-2,0.9-2,2v27.4l-4.9-4.7C284.7,399.8,283.5,399.8,282.7,400.7z"/>
		<path d="M271.1,410.5l-6.7,0.1c-1.1,0-2,1-2,2.1s0.9,2,2,2l0,0l11.5-0.2c0.2,0,0.5-0.1,0.7-0.1l0,0c0.5-0.2,0.9-0.6,1.1-1.1l0,0
			c0.1-0.2,0.1-0.4,0.1-0.7l0.2-11.5c0-1.1-0.9-2.1-2-2.1s-2.1,0.9-2.1,2l-0.1,6.7l-17.4-17.4c-0.8-0.8-2.1-0.8-2.9,0
			c-0.8,0.8-0.8,2.1,0,2.9L271.1,410.5z"/>
		<path d="M263.7,435.7c-0.8,0.8-0.8,2.1,0.1,2.9c0.4,0.4,0.9,0.6,1.4,0.6s1.1-0.2,1.5-0.6l8-8.3l0,0c0.2-0.2,0.3-0.4,0.4-0.6
			c0,0,0,0,0-0.1c0.1-0.2,0.1-0.5,0.1-0.7l0,0l0,0c0-0.3-0.1-0.5-0.1-0.7l0,0c-0.1-0.2-0.2-0.4-0.4-0.6l0,0l-8-8.3
			c-0.8-0.8-2.1-0.8-2.9-0.1c-0.8,0.8-0.8,2.1-0.1,2.9l4.7,4.9H241c-1.1,0-2,0.9-2,2c0,1.1,0.9,2,2,2h27.4L263.7,435.7z"/>
		<path d="M273.7,456.9c0,1.1,0.9,2,2,2l0,0c1.1,0,2-1,2-2.1l-0.2-11.5c0-0.2-0.1-0.5-0.1-0.7l0,0c-0.2-0.5-0.6-0.9-1.1-1.1l0,0
			c-0.2-0.1-0.4-0.1-0.7-0.1l-11.5-0.2c-1.1,0-2.1,0.9-2.1,2c0,1.1,0.9,2.1,2,2.1l6.7,0.1l-17.4,17.4c-0.8,0.8-0.8,2.1,0,2.9
			c0.4,0.4,0.9,0.6,1.4,0.6s1-0.2,1.4-0.6l17.4-17.4L273.7,456.9z"/>
		<path d="M301.7,457.5c0.8-0.8,0.8-2.1-0.1-2.9l-8.3-8l0,0c-0.2-0.2-0.4-0.3-0.6-0.4l0,0c-0.2-0.1-0.5-0.1-0.7-0.1
			c-0.3,0-0.5,0.1-0.7,0.1l0,0c-0.2,0.1-0.4,0.2-0.6,0.4l0,0l-8.3,8c-0.8,0.8-0.8,2.1-0.1,2.9c0.4,0.4,0.9,0.6,1.5,0.6
			c0.5,0,1-0.2,1.4-0.6l4.9-4.7v27.5c0,1.1,0.9,2,2,2s2-0.9,2-2v-27.4l4.9,4.7C299.6,458.3,300.9,458.3,301.7,457.5z"/>
		<path d="M313.2,447.7l6.7-0.1c1.1,0,2-1,2-2.1c0-1.1-1-2-2.1-2l-11.5,0.2c-0.2,0-0.5,0.1-0.7,0.1l0,0c-0.5,0.2-0.9,0.6-1.1,1.1
			l0,0c-0.1,0.2-0.1,0.4-0.1,0.7l-0.2,11.5c0,1.1,0.9,2.1,2,2.1l0,0c1.1,0,2-0.9,2-2l0.1-6.7l17.4,17.4c0.4,0.4,0.9,0.6,1.4,0.6
			s1-0.2,1.4-0.6c0.8-0.8,0.8-2.1,0-2.9L313.2,447.7z"/>
		<path d="M343.4,427.3H316l4.7-4.9c0.8-0.8,0.8-2.1-0.1-2.9c-0.8-0.8-2.1-0.8-2.9,0.1l-8,8.3l0,0c-0.2,0.2-0.3,0.4-0.4,0.6
			c0,0,0,0,0,0.1c-0.1,0.2-0.1,0.5-0.1,0.7l0,0l0,0c0,0.3,0.1,0.5,0.1,0.7l0,0c0.1,0.2,0.2,0.4,0.4,0.6l0,0l8,8.3
			c0.4,0.4,0.9,0.6,1.5,0.6c0.5,0,1-0.2,1.4-0.6c0.8-0.8,0.8-2.1,0.1-2.9l-4.7-4.9h27.4c1.1,0,2-0.9,2-2
			C345.4,428,344.5,427.3,343.4,427.3z"/>
		<path d="M310.6,401.3c0-1.1-1-2-2.1-2s-2,1-2,2.1l0.2,11.5c0,0.2,0.1,0.5,0.1,0.7l0,0c0.2,0.5,0.6,0.9,1.1,1.1l0,0
			c0.2,0.1,0.4,0.1,0.7,0.1l11.5,0.2l0,0c1.1,0,2-0.9,2-2c0-1.1-0.9-2.1-2-2.1l-6.7-0.1l17.4-17.4c0.8-0.8,0.8-2.1,0-2.9
			s-2.1-0.8-2.9,0l-17.4,17.4L310.6,401.3z"/>
		<path d="M317.6,393.2c-5.3-3.7-11.2-6.2-17.5-7.4l-0.7,4c5.8,1,11.1,3.3,15.9,6.7L317.6,393.2z"/>
		<path d="M285.5,389.7l-0.7-4c-6.4,1.1-12.3,3.5-17.7,7.2l2.3,3.3C274.3,392.9,279.7,390.7,285.5,389.7z"/>
		<path d="M299.3,468.3l0.7,4c6.3-1.1,12.2-3.6,17.5-7.4l-2.4-3.3C310.4,465,305.1,467.3,299.3,468.3z"/>
		<path d="M267.1,465.2c5.3,3.7,11.3,6.1,17.7,7.2l0.7-4c-5.8-1-11.2-3.2-16-6.5L267.1,465.2z"/>
		<path d="M259.6,452.1c-3.4-4.8-5.7-10.2-6.7-16l-4,0.7c1.1,6.4,3.6,12.3,7.4,17.7L259.6,452.1z"/>
		<path d="M259.6,406.1l-3.3-2.4c-3.7,5.3-6.2,11.2-7.4,17.7l4,0.7C253.9,416.3,256.2,410.9,259.6,406.1z"/>
		<path d="M324.9,451.8l3.3,2.3c3.7-5.3,6.1-11.2,7.2-17.5l-4-0.7C330.4,441.7,328.2,447.1,324.9,451.8z"/>
		<path d="M324.9,406.3c3.3,4.8,5.5,10.1,6.5,15.9l4-0.7c-1.1-6.3-3.5-12.2-7.2-17.5L324.9,406.3z"/>
		<circle cx="292.2" cy="429.1" r="8.2"/>
	</g>
</g>
<path class="st3" d="M159.8,532.3c-12.2,0-22,9.9-22,22c0,18.4,21.9,51.1,22,51.1s22-33,22-51.1
	C181.8,542.2,171.9,532.3,159.8,532.3z M159.7,540c1.6,0,2.9,1.3,2.9,2.9c0,1.6-1.3,2.9-2.9,2.9c-1.6,0-2.9-1.3-2.9-2.9
	C156.8,541.3,158.1,540,159.7,540z M167.2,556.9c-1-0.5-2-0.9-2.9-1.4c-0.6-0.3-2-0.7-2.4-1.3c-0.5-0.6-0.8-1.4-1.2-2.1
	c-0.2,1.6-0.5,3.2-0.7,4.8c-0.1,1,0.5,1.8,0.9,2.7c1.3,2.9,2.4,5.7,3.7,8.6c0.9,2-1.8,3-2.7,1.1c-0.5-1-0.9-2.1-1.4-3.1
	c-1-2.2-2.1-4.4-3.1-6.6c-0.3,2-0.3,4.7-1.6,6.4c-0.9,1.2-1.8,2.3-2.7,3.5c-1.3,1.7-3.9,0.3-2.5-1.6c1-1.3,1.8-2.6,2.8-3.9
	c0.3-0.4,0.5-1.8,0.6-3.1c0.5-4.5,1-6.5,1.6-9.8l-1.6,1.2c-0.2,1.4-0.5,2.4-0.8,3.8c-0.1,0.5-0.3,1.2-0.8,1.5
	c-0.9,0.5-1.9,0-1.7-1.1c0.2-1.1,0.4-2.3,0.6-3.4c0.1-0.9,0.1-2.3,1-2.9c1.8-1.2,4.3-3.7,5.9-3.8c3.6,0,4.4,4,5.5,5.8
	c0.8,1.3,3.5,2.2,4.9,2.8C170.2,555.8,168.7,557.7,167.2,556.9z"/>
<g>
	<ellipse class="st6" cx="294.1" cy="428.2" rx="173.3" ry="113"/>
</g>
</svg>
