<?xml version="1.0" encoding="utf-8"?>
<!-- Generator: Adobe Illustrator 19.0.0, SVG Export Plug-In . SVG Version: 6.00 Build 0)  -->
<svg version="1.1" id="Layer_1" xmlns="http://www.w3.org/2000/svg" xmlns:xlink="http://www.w3.org/1999/xlink" x="0px" y="0px"
	 width="158.7px" height="170.5px" viewBox="0 0 158.7 170.5" style="enable-background:new 0 0 158.7 170.5;" xml:space="preserve"
	>
<style type="text/css">
	.st0{fill:#231F20;}
</style>
<g>
	<path class="st0" d="M107,78.9c0.1-17.9,0.1-32.8,0.1-53.3c0-3.7-0.1-7.4,0-11.2c0.2-8.6-6.8-14.5-14.7-14.4
		C66.5,0.1,40.5,0,14.5,0C5.8,0,0.1,5.6,0.1,14.3v119c0,7.5,0,15-0.1,22.5c-0.1,9.4,7.1,14.8,14.9,14.7c25.9-0.2,51.7-0.1,77.6-0.1
		c7.8,0.1,14.7-5.8,14.6-14.4c-0.1-13.4-0.1-26.9-0.1-40.3c-2.4,1.3-5,2-7.8,2c-0.8,0-1.6-0.1-2.4-0.2v24.9H9.9V19.7h86.9v65.1
		l0.3,0.3C98.1,85,99,84.9,100,85L107,78.9z M53.3,148c4.7,0,8.5,3.8,8.5,8.4c0,4.7-3.9,8.7-8.5,8.7c-4.7-0.1-8.5-3.9-8.5-8.6
		C44.9,151.8,48.6,148,53.3,148z"/>
	<path class="st0" d="M157.8,50.2c-0.6-0.7-1.5-1-2.4-1.1l-13.7-0.4c-1.9,0-3.3,1-3.5,2.6c-0.1,0.9,0.1,1.7,0.6,2.3
		c0.5,0.7,1.4,1,2.3,1.1c0.7,0,3.6,0.2,5.6,0.3l-44.4,38.6c-2.2-0.9-4.7-0.8-6.8,0.4L64.7,70.8c0.3-3.5-1.6-6.8-4.8-8.2
		c-4.1-1.9-9,0.1-10.9,4.3l0,0.1l-4.8,1c-0.3-0.1-0.7,0-1.1,0l-16.5,3.5c-1,0.2-1.9,0.8-2.4,1.6c-0.6,0.9-0.8,1.9-0.5,3
		c0,0.3,0.1,0.7,0.3,1.1c0.2,0.4,0.5,0.7,0.7,1c0.2,0.2,0.4,0.3,0.6,0.5l0.5,0.2c0.5,0.2,1,0.4,1.8,0.3l22.1-4.5
		c0.8,1.4,2.1,2.5,3.5,3.1c2.4,1.1,5.2,0.9,7.5-0.5l30.5,23c-0.4,3.6,1.5,7.1,4.8,8.6c0.3,0.1,0.5,0.2,0.9,0.3
		c3.7,1.2,7.8-0.4,9.8-3.8c1-1.9,1.4-4,0.9-6l44.6-38.8c0,2.1-0.1,4.6-0.1,5.5c-0.1,2.9,1.4,4,2.9,4c0.8,0,1.5-0.2,2-0.7
		c0.7-0.6,1.1-1.6,1.2-2.9l0.9-13.8C158.8,51.8,158.5,50.9,157.8,50.2z M61.5,72.5c-0.8,1.9-2.7,3.1-4.7,3.2c-0.9,0-1.7-0.2-2.5-0.5
		l-0.8-0.4c-2.2-1.5-3-4.5-1.8-6.9c1.2-2.6,4.2-3.8,6.9-2.8l0.2,0.1C61.4,66.5,62.7,69.7,61.5,72.5z M104.2,103.6
		c-0.6,1.4-2,2.6-3.5,3c-1.1,0.3-2.2,0.3-3.4-0.2l-0.3-0.1c-0.8-0.4-1.6-1-2.1-1.7c-1.2-1.7-1.4-3.9-0.5-5.7
		c1.2-2.5,4.3-3.6,6.8-2.6l0.2,0.1C104.2,97.7,105.4,100.8,104.2,103.6z"/>
</g>
</svg>
