<?xml version="1.0" encoding="utf-8"?>
<!-- Generator: Adobe Illustrator 19.1.0, SVG Export Plug-In . SVG Version: 6.00 Build 0)  -->
<svg version="1.1" id="Layer_1" xmlns="http://www.w3.org/2000/svg" xmlns:xlink="http://www.w3.org/1999/xlink" x="0px" y="0px"
	 width="17.8px" height="13px" viewBox="0 0 17.8 13" style="enable-background:new 0 0 17.8 13;" xml:space="preserve">
<g>
	<path d="M0,4.4V0h17.8v4.4H0z M0,13V8.6h17.8V13H0z"/>
</g>
</svg>
